Dirichlet Process Prior
…
draw_dirichlet(n = 10, M = 1, G0_vector = G0_vector(lambda = 2, min = 1, max = 8))

## Warning: `as_data_frame()` is deprecated as of tibble 2.0.0.
## Please use `as_tibble()` instead.
## The signature and semantics have changed, see `?as_tibble`.
## This warning is displayed once every 8 hours.
## Call `lifecycle::last_warnings()` to see where this warning was generated.

## Warning: The `x` argument of `as_tibble.matrix()` must have column names if `.name_repair` is omitted as of tibble 2.0.0.
## Using compatibility `.name_repair`.
## This warning is displayed once every 8 hours.
## Call `lifecycle::last_warnings()` to see where this warning was generated.

## # A tibble: 80 x 4
##    y     .iter         p     M
##    <chr> <int>     <dbl> <dbl>
##  1 1         1 4.91e-  1     1
##  2 2         1 4.41e-  1     1
##  3 3         1 1.16e-  7     1
##  4 4         1 7.60e-  9     1
##  5 5         1 6.82e-  2     1
##  6 6         1 5.77e-106     1
##  7 7         1 4.02e-159     1
##  8 8         1 9.04e-194     1
##  9 1         2 3.27e-  2     1
## 10 2         2 7.69e-  1     1
## #  with 70 more rows
…
